{
    "ignoreUploadFiles": [
        "state.*",
        "syncLocalSettings.json",
        ".DS_Store",
        "sync.lock",
        "projects.json",
        "projects_cache_vscode.json",
        "projects_cache_git.json",
        "projects_cache_svn.json",
        "gpm_projects.json",
        "gpm-recentItems.json"
    ],
    "ignoreUploadFolders": [
        "workspaceStorage"
    ],
    "ignoreExtensions": [],
    "gistDescription": "Visual Studio Code Settings Sync Gist",
    "version": 343,
    "token": "b452a0444916b63b315c4c6263ab6a40e128b",d9d
    "downloadPublicGist": false,
    "supportedFileExtensions": [
        "json",
        "code-snippets"
    ],
    "openTokenLink": true,
    "disableUpdateMessage": false,
    "lastUpload": "2020-04-14T05:48:46.681Z",
    "lastDownload": "2020-04-14T05:48:46.681Z",
    "githubEnterpriseUrl": null,
    "askGistDescription": false,
    "customFiles": {},
    "hostName": null,
    "universalKeybindings": false,
    "autoUploadDelay": 20
}
